…
### Further investigate high suicide counts
Sorting by suicide counts descending tells us that US and Russian men age 35-54 had the highest
suicide raw counts from 2008 - 2015, but this is not scaled by population yet.
If we instead look at suicides per 100k persons, will the same trend hold?

```r
high_suicides <- suic_fmt %>%
    filter(suicides_no > 1000) %>%
    arrange(desc(suicides_no)) %>%
    print()
```

```
## # A tibble: 418 x 8
##    country             year sex   age   suicides_no population suicides_p100k
##    <fct>              <dbl> <fct> <fct>       <dbl>      <dbl>          <dbl>
##  1 Russian Federation  2008 male  35-54       11848   20041975           59.1
##  2 United States       2010 male  35-54       11767   42798501           27.5
##  3 United States       2012 male  35-54       11763   42326226           27.8
##  4 Russian Federation  2009 male  35-54       11721   19901557           58.9
##  5 United States       2011 male  35-54       11681   42566273           27.4
##  6 United States       2015 male  35-54       11634   41658010           27.9
##  7 United States       2009 male  35-54       11613   42932194           27.0
##  8 United States       2014 male  35-54       11455   41858354           27.4
##  9 United States       2013 male  35-54       11396   42085688           27.1
## 10 United States       2008 male  35-54       11371   43002471           26.4
## # … with 408 more rows, and 1 more variable: gdp_per_capita <dbl>
```

#### Suicides per 100k persons
US and Russian men are no longer at the top of list, so it may have been due to their large population
that so many suicides occurred.  In both of these lists I see only male persons that are older
as well, so maybe sex or age plays a factor here.

```r
suic_fmt %>%
    arrange(desc(suicides_p100k)) %>%
    print()
```

```
## # A tibble: 7,948 x 8
##    country            year sex   age   suicides_no population suicides_p100k
##    <fct>             <dbl> <fct> <fct>       <dbl>      <dbl>          <dbl>
##  1 Suriname           2012 male  75+            10       5346           187.
##  2 Republic of Korea  2011 male  75+          1276     688365           185.
##  3 Republic of Korea  2010 male  75+          1152     631853           182.
##  4 Republic of Korea  2009 male  75+          1006     578635           174.
##  5 Republic of Korea  2008 male  75+           828     534462           155.
##  6 Republic of Korea  2012 male  75+          1137     745816           152.
##  7 Republic of Korea  2013 male  75+          1191     806960           148.
##  8 Republic of Korea  2015 male  75+          1329     944284           141.
##  9 Republic of Korea  2014 male  75+          1090     875829           124.
## 10 Montenegro         2009 male  75+            15      12568           119.
## # … with 7,938 more rows, and 1 more variable: gdp_per_capita <dbl>
```
…
print(suic_cts_country)
```

```
## # A tibble: 94 x 4
## # Groups:   country [94]
##    country                    rec_ct_suic_gt0 rec_ct_suic_eq0 perc_zero_suic_re…
##    <fct>                                <int>           <int>              <dbl>
##  1 Antigua and Barbuda                      1              71              0.986
##  2 Grenada                                  3             103              0.972
##  3 Barbados                                 5              67              0.931
##  4 Maldives                                 3              33              0.917
##  5 Saint Vincent and Grenadi…              20              76              0.792
##  6 Seychelles                              25              71              0.740
##  7 Oman                                    11              25              0.694
##  8 Aruba                                   15              33              0.688
##  9 Bahamas                                 25              47              0.653
## 10 Saint Lucia                             30              54              0.643
## # … with 84 more rows
```
…
